%YAML 1.1
%TAG !u! tag:unity3d.com,2011:
--- !u!114 &11400000
MonoBehaviour:
  m_ObjectHideFlags: 0
  m_CorrespondingSourceObject: {fileID: 0}
  m_PrefabInstance: {fileID: 0}
  m_PrefabAsset: {fileID: 0}
  m_GameObject: {fileID: 0}
  m_Enabled: 1
  m_EditorHideFlags: 0
  m_Script: {fileID: 11500000, guid: 8b2f3f29ecffd094e9199e527aa228f2, type: 3}
  m_Name: Settings
  m_EditorClassIdentifier: 
  collisionsThreshold: 1
  startingLives: 3
  playerRespawnDelay: 2
  playerInvincibilityDelay: 6
  rotateAngle: 10
  thrustStrength: 0.2
  maxVelocity: 1
  laserSpeed: 8
  laserLifetime: 4
  shipScale: 0.5
  playerLaserScale: 0.1
  bigAsteroidScore: 20
  mediumAsteroidScore: 40
  smallAsteroidScore: 80
  randomDestinationRadius: 2
  asteroidsLifetime: 15
  bigAsteroidScale: 2
  bigAsteroidMinNumber: 2
  bigAsteroidMaxNumber: 4
  bigAsteroidSpeed: 0.5
  bigAsteroidSpawnRate: 10
  mediumAsteroidScale: 1
  mediumAsteroidMinNumber: 2
  mediumAsteroidMaxNumber: 3
  mediumAsteroidSpeed: 1
  mediumAsteroidSpawnRate: 6
  smallAsteroidScale: 0.5
  smallAsteroidMinNumber: 2
  smallAsteroidMaxNumber: 4
  smallAsteroidSpeed: 1.5
  smallAsteroidSpawnRate: 4
