[api-updater (non-obsolete-error-filter)] 2021-08-26 13:33:27 : Starting D:/Unity/2020.2.1f1/Editor/Data/Tools/ScriptUpdater/APIUpdater.NonObsoleteApiUpdaterDetector.exe
[api-updater (non-obsolete-error-filter)] 
----------------------------------
jit/startup time      : 328,2347ms
moved types parse time: 45ms
candidates parse time : 0ms
C# parse time         : 634ms
candidates check time : 43ms
console write time    : 0ms

[api-updater (non-obsolete-error-filter)] 2021-08-26 13:49:02 : Starting D:/Unity/2020.2.1f1/Editor/Data/Tools/ScriptUpdater/APIUpdater.NonObsoleteApiUpdaterDetector.exe
[api-updater (non-obsolete-error-filter)] 
----------------------------------
jit/startup time      : 75,3175ms
moved types parse time: 43ms
candidates parse time : 1ms
C# parse time         : 165ms
candidates check time : 34ms
console write time    : 0ms

[api-updater (non-obsolete-error-filter)] 2021-08-27 11:38:55 : Starting D:/Unity/2020.2.1f1/Editor/Data/Tools/ScriptUpdater/APIUpdater.NonObsoleteApiUpdaterDetector.exe
[api-updater (non-obsolete-error-filter)] 
----------------------------------
jit/startup time      : 276,1146ms
moved types parse time: 44ms
candidates parse time : 0ms
C# parse time         : 558ms
candidates check time : 38ms
console write time    : 0ms

